module go-rest-api

go 1.19

require (
	github.com/go-chi/chi v1.5.4
	github.com/go-chi/chi/v5 v5.0.7
	github.com/go-chi/cors v1.2.1
	github.com/jackc/pgconn v1.13.0
	github.com/jackc/pgx/v4 v4.17.2
)

require (
	github.com/jackc/chunkreader/v2 v2.0.1 // indirect
	github.com/jackc/pgio v1.0.0 // indirect
	github.com/jackc/pgpassfile v1.0.0 // indirect
	github.com/jackc/pgproto3/v2 v2.3.1 // indirect
	github.com/jackc/pgservicefile v0.0.0-20200714003250-2b9c44734f2b // indirect
	github.com/jackc/pgtype v1.12.0 // indirect
	golang.org/x/crypto v0.0.0-20220722155217-630584e8d5aa // indirect
	golang.org/x/text v0.3.7 // indirect
)
